<?xml version="1.0" encoding="UTF-8" standalone="no"?>
<!-- Created with Inkscape (http://www.inkscape.org/) -->

<svg
   xmlns:dc="http://purl.org/dc/elements/1.1/"
   xmlns:cc="http://creativecommons.org/ns#"
   xmlns:rdf="http://www.w3.org/1999/02/22-rdf-syntax-ns#"
   xmlns:svg="http://www.w3.org/2000/svg"
   xmlns="http://www.w3.org/2000/svg"
   xmlns:sodipodi="http://sodipodi.sourceforge.net/DTD/sodipodi-0.dtd"
   xmlns:inkscape="http://www.inkscape.org/namespaces/inkscape"
   width="31.75mm"
   height="23.84833mm"
   viewBox="0 0 112.5 84.501955"
   id="svg2"
   version="1.1"
   inkscape:version="0.91 r13725"
   sodipodi:docname="isg_logo.svg">
  <defs
     id="defs4" />
  <sodipodi:namedview
     id="base"
     pagecolor="#ffffff"
     bordercolor="#666666"
     borderopacity="1.0"
     inkscape:pageopacity="0.0"
     inkscape:pageshadow="2"
     inkscape:zoom="5.6"
     inkscape:cx="45.397286"
     inkscape:cy="43.151023"
     inkscape:document-units="px"
     inkscape:current-layer="layer1"
     showgrid="false"
     fit-margin-top="0"
     fit-margin-left="0"
     fit-margin-right="0"
     fit-margin-bottom="0"
     inkscape:window-width="2880"
     inkscape:window-height="1556"
     inkscape:window-x="0"
     inkscape:window-y="27"
     inkscape:window-maximized="1" />
  <metadata
     id="metadata7">
    <rdf:RDF>
      <cc:Work
         rdf:about="">
        <dc:format>image/svg+xml</dc:format>
        <dc:type
           rdf:resource="http://purl.org/dc/dcmitype/StillImage" />
        <dc:title></dc:title>
      </cc:Work>
    </rdf:RDF>
  </metadata>
  <g
     inkscape:label="Layer 1"
     inkscape:groupmode="layer"
     id="layer1"
     transform="translate(-496.29275,-759.69507)">
    <path
       style="fill:#214da5;fill-opacity:1"
       d="m 502.57604,839.76033 c -3.34224,-6.55134 -3.19635,-8.37782 0.74826,-9.36786 l 3.28155,-0.82362 -0.89554,-12.63171 c -0.49255,-6.94745 -1.1343,-13.24717 -1.42612,-13.9994 -0.29182,-0.75222 -2.20927,-2.32588 -4.26101,-3.49703 -2.05174,-1.17115 -3.73043,-2.99928 -3.73043,-4.0625 0,-1.61997 2.10096,-1.93314 12.96875,-1.93314 16.18668,0 20.78125,0.83634 20.78125,3.78276 0,1.82516 0.69085,1.57491 3.88219,-1.40625 2.13521,-1.99458 5.08834,-3.70712 6.5625,-3.80564 1.47417,-0.0985 9.99281,-0.37492 18.93031,-0.61423 8.9375,-0.23932 17.9375,-0.55359 20,-0.69839 2.0625,-0.1448 9.51562,-0.14965 16.5625,-0.0107 12.766,0.25158 12.8125,0.26384 12.8125,3.3775 0,1.94444 -0.70833,3.125 -1.875,3.125 -1.34804,0 -1.875,1.3782 -1.875,4.90385 0,3.80929 -0.85847,5.76231 -3.84615,8.75 -2.11539,2.11538 -4.74039,3.84615 -5.83334,3.84615 -3.07365,0 -0.61949,1.73409 4.4693,3.15797 4.05163,1.13367 4.62863,1.79599 4.95849,5.69163 0.5143,6.07386 -3.21118,10.39566 -11.69864,13.57123 -9.18799,3.43767 -13.67168,3.22481 -21.35865,-1.01399 -5.88739,-3.24645 -7.23989,-3.49615 -15.91994,-2.9391 -5.84628,0.37519 -10.03102,1.26555 -10.90656,2.32052 -2.0839,2.51095 -3.0586,2.19087 -8.92341,-2.93028 -4.72399,-4.12499 -4.90857,-4.19606 -1.65723,-0.63804 2.01238,2.20219 3.29244,4.37041 2.84458,4.81827 -0.44786,0.44787 -6.59435,2.11621 -13.65887,3.70744 -7.06452,1.59123 -14.09522,3.20637 -15.62379,3.5892 -2.27974,0.57098 -3.23448,-0.19634 -5.3125,-4.26959 z m 18.43653,-1.51844 c 7.71225,-1.6379 12.64459,-3.26614 12.34375,-4.07487 -0.27559,-0.74082 -1.12399,-1.20962 -1.88534,-1.04178 -1.89451,0.41766 -2.40583,-2.80036 -3.32306,-20.91364 -0.49606,-9.79604 -1.33777,-15.95661 -2.26028,-16.54336 -0.80844,-0.51419 -7.26871,-0.9435 -14.35616,-0.95403 -13.39993,-0.0199 -15.62013,1.27203 -6.43595,3.74507 4.8822,1.31464 6.80893,3.73579 2.9729,3.73579 -1.47795,0 -1.811,0.86423 -1.32471,3.4375 0.35728,1.89062 1.00528,7.72023 1.44001,12.95468 0.77168,9.29177 0.71077,9.57519 -2.57176,11.96634 -3.30477,2.40736 -3.32711,2.51693 -1.30859,6.42032 1.12947,2.18414 2.461,3.97673 2.95897,3.98353 0.49797,0.007 6.68557,-1.21519 13.75022,-2.71555 z m 62.11525,-3.59094 c -2.24018,-2.47537 -2.23418,-2.61233 0.22223,-5.06874 1.69637,-1.69637 4.91242,-2.77106 9.80291,-3.27581 8.73813,-0.90185 8.73682,1.37436 -10e-4,2.57208 -3.14024,0.43042 -6.86678,1.40192 -8.2812,2.1589 l -2.57167,1.37631 2.71349,1.9006 c 2.44061,1.70947 3.2686,1.6886 8.23363,-0.20756 9.50433,-3.62974 13.76432,-12.00032 7.34864,-14.43956 -6.29099,-2.39183 -13.24188,-2.93679 -14.36105,-1.12593 -0.58005,0.93854 -1.50709,1.25299 -2.0601,0.69879 -0.55301,-0.5542 0.5372,-2.33544 2.42269,-3.9583 1.88869,-1.62563 2.87102,-3.295 2.1875,-3.71743 -2.3039,-1.42389 -1.42907,-12.54256 1.25538,-15.95528 l 2.49604,-3.1732 -6.55854,-0.49833 c -3.60719,-0.27408 -8.4539,-0.002 -10.77046,0.60464 -4.183,1.09539 -4.20785,1.14547 -3.61729,7.29146 0.45048,4.68826 0.13432,6.44609 -1.30419,7.25112 -1.60675,0.89918 -1.52478,1.18136 0.53286,1.83443 1.92621,0.61135 2.48807,2.0675 2.7029,7.00494 0.23222,5.33692 -0.25549,6.81999 -3.39192,10.31457 l -3.66312,4.08142 6.47635,3.37853 c 3.56199,1.85819 7.82915,3.40506 9.48258,3.4375 2.94488,0.0578 2.95924,0.007 0.70384,-2.48515 z m -38.71007,-2.45588 c 0.4249,-0.6875 3.88871,-1.25 7.69736,-1.25 11.70532,0 19.17764,-5.16634 19.17764,-13.25937 0,-4.61157 -2.41141,-6.54556 -12.18683,-9.77399 -7.50828,-2.47969 -10.8654,-6.09915 -8.95974,-9.6599 0.67899,-1.26871 2.05849,-2.30674 3.06555,-2.30674 1.00706,0 1.83102,-0.48934 1.83102,-1.08744 0,-0.59808 -2.67188,-1.40322 -5.9375,-1.7892 -10.1598,-1.20081 -19.06178,5.26508 -16.68615,12.11986 1.04474,3.01457 11.25763,8.52036 21.37365,11.52259 8.26721,2.45353 8.98992,2.83472 8.10114,4.2728 -0.39974,0.64679 -2.02852,0.60682 -3.87466,-0.0951 -2.52863,-0.96138 -3.8423,-0.69392 -6.37433,1.29777 -1.75411,1.37979 -4.09781,2.52659 -5.20822,2.54846 -1.68179,0.0331 -1.61374,0.34622 0.40748,1.875 1.33453,1.00938 1.72954,1.83524 0.87782,1.83524 -0.85173,0 -2.78737,-1.31526 -4.30142,-2.92281 -1.51404,-1.60755 -4.29969,-3.92224 -6.19031,-5.14376 l -3.4375,-2.22095 0,4.40764 c 0,3.38727 0.89033,5.15681 3.84591,7.64376 4.16615,3.50559 5.58339,3.92081 6.77909,1.98612 z m -13.54715,-12.8125 c -0.34677,-0.85938 -0.63048,-0.15625 -0.63048,1.5625 0,1.71875 0.28371,2.42187 0.63048,1.5625 0.34677,-0.85938 0.34677,-2.26563 0,-3.125 z m 18.61877,2.2897 c 2.94923,-2.15653 3.14999,-1.98255 -7.34522,-6.36569 -4.68797,-1.95786 -9.3286,-4.70905 -10.3125,-6.11376 -1.671,-2.38569 -1.7889,-2.2013 -1.7889,2.79789 0,2.96788 0.51606,5.03296 1.15852,4.6359 0.63718,-0.3938 3.87155,0.93608 7.1875,2.95529 7.04771,4.29164 7.8767,4.44775 11.1006,2.09037 z m 51.5745,-13.57641 c 2.17546,-2.62127 3.21151,-9.20497 1.60481,-10.19796 -2.22246,-1.37356 -1.58045,-3.20283 1.12407,-3.20283 1.375,0 2.5,-0.54048 2.5,-1.20107 0,-0.66059 -2.81229,-1.08247 -6.24954,-0.9375 -3.43725,0.14496 -6.24975,0.68544 -6.25,1.20107 -2.5e-4,0.51562 -1.12546,2.0625 -2.50046,3.4375 -3.25223,3.25222 -3.45904,12.14813 -0.33552,14.4321 1.75331,1.28205 2.77978,1.26453 5.40354,-0.0923 1.78149,-0.92124 3.89788,-2.4688 4.7031,-3.43903 z m -36.02112,-1.52579 c -0.85586,-1.03125 -2.6391,-1.875 -3.96274,-1.875 -1.32365,0 -3.79161,-1.49442 -5.48436,-3.32092 -1.69275,-1.82651 -3.47412,-2.92453 -3.9586,-2.44005 -1.67359,1.6736 1.81086,5.14336 7.2862,7.25549 6.90378,2.66316 8.07436,2.73594 6.1195,0.38048 z m 5,-8.01513 c 0,-4.74452 -0.15138,-4.9157 -5.08423,-5.7491 -2.79633,-0.47244 -5.42133,-0.52188 -5.83333,-0.10988 -0.41201,0.41201 0.61027,0.75772 2.27173,0.76825 1.66145,0.0105 3.86458,0.58101 4.89583,1.26774 1.32383,0.88157 0.36738,1.02134 -3.25374,0.47548 -4.19875,-0.63293 -5.28281,-0.37158 -5.97847,1.44128 -1.08378,2.82429 0.43974,4.31392 5.6789,5.55259 7.08656,1.67545 7.30331,1.56723 7.30331,-3.64636 z m -61.9053,-14.28559 c -5.78614,-2.62695 -8.50851,-10.37978 -5.57171,-15.86724 1.50041,-2.80355 11.13594,-8.70704 14.21141,-8.70704 3.79366,0 9.42153,3.69225 11.36944,7.45908 4.78846,9.25987 0.2528,17.53794 -10.05239,18.34673 -3.60352,0.28281 -7.75121,-0.23021 -9.95675,-1.23153 z m 3.1553,-3.36826 c 0,-0.89197 0.75116,-0.89197 2.41782,0 6.75763,3.61657 13.83218,-0.0183 13.83218,-7.10693 0,-5.57094 -1.74341,-8.64364 -6.2168,-10.95692 -4.30251,-2.22492 -8.7514,-1.01981 -11.68216,3.16444 -1.04569,1.49293 -2.44976,2.37541 -3.12016,1.96108 -0.67041,-0.41433 -1.55911,0.13319 -1.9749,1.21672 -1.44683,3.77038 -0.74013,8.03144 1.74402,10.51559 2.71327,2.71327 5,3.26484 5,1.20602 z"
       id="path3435"
       inkscape:connector-curvature="0" />
  </g>
</svg>
